…
```r
 frame2 %>% 
  group_by(date, colony_num) %>% 
  summarize(n = n()) %>% 
   arrange(desc(n))
```

```
## `summarise()` has grouped output by 'date'. You can override using the
## `.groups` argument.
```

```
## # A tibble: 138 × 3
## # Groups:   date [4]
##    date       colony_num     n
##    <chr>      <chr>      <int>
##  1 2022-05-24 "22-005"      72
##  2 2022-06-07 ""            72
##  3 2022-06-11 "22-149"      72
##  4 2022-05-24 "22-031"      58
##  5 2022-05-24 "22-004"      56
##  6 2022-05-24 "21-034"      54
##  7 2022-05-24 "22-009"      54
##  8 2022-05-24 "22-010"      54
##  9 2022-05-24 "22-011"      54
## 10 2022-05-24 "22-012"      54
## # … with 128 more rows
```
## Deal with "extra bees" so that it is counted only once per box

```r
frame2 %>% 
  group_by(date, colony_num) %>% 
  summarize(n = n()) # There are 36-72 rows per colony and date
```

```
## `summarise()` has grouped output by 'date'. You can override using the
## `.groups` argument.
```

```
## # A tibble: 138 × 3
## # Groups:   date [4]
##    date       colony_num     n
##    <chr>      <chr>      <int>
##  1 2022-05-24 21-034        54
##  2 2022-05-24 22-001        36
##  3 2022-05-24 22-002        36
##  4 2022-05-24 22-004        56
##  5 2022-05-24 22-005        72
##  6 2022-05-24 22-007        36
##  7 2022-05-24 22-008        38
##  8 2022-05-24 22-009        54
##  9 2022-05-24 22-010        54
## 10 2022-05-24 22-011        54
## # … with 128 more rows
```
…
colony2 %>% 
  filter(collection_date %in% c("2022-05-24", "2022-05-31", "2022-06-07", "2022-06-11")) %>% 
  group_by(collection_date, colony_num) %>% 
  summarize(n())
```

```
## `summarise()` has grouped output by 'collection_date'. You can override using
## the `.groups` argument.
```

```
## # A tibble: 143 × 3
## # Groups:   collection_date [4]
##    collection_date colony_num `n()`
##    <chr>           <chr>      <int>
##  1 2022-05-24      21-034         3
##  2 2022-05-24      22-001         2
##  3 2022-05-24      22-002         2
##  4 2022-05-24      22-004         1
##  5 2022-05-24      22-005         3
##  6 2022-05-24      22-007         3
##  7 2022-05-24      22-008         2
##  8 2022-05-24      22-009         2
##  9 2022-05-24      22-010         2
## 10 2022-05-24      22-011         2
## # … with 133 more rows
```
…
